word :aa >
mean :aaaaa >

word :ccc >
mean :ccccc >

word :dd >
mean :dddddd >

word :ff >
mean :fffff >

word :gg >
mean :ggggg >

word :hh >
mean :hhhh >

word :qq >
mean :qqqqqq >

word :tt >
mean :ttttt >

word :vv >
mean :vvvvvv >

word :yy >
mean :yyyyy >

word :zz >
mean :zzzz >

